{
  "Small_cactus": {
    "canvasCtx": {},
    "spritePos": {
      "x": 228,
      "y": 2
    },
    "typeConfig": {
      "type": "CACTUS_SMALL",
      "width": 17,
      "height": 35,
      "yPos": 105,
      "multipleSpeed": 4,
      "minGap": 120,
      "minSpeed": 0,
      "collisionBoxes": [{
          "x": 0,
          "y": 7,
          "width": 5,
          "height": 27
        },
        {
          "x": 4,
          "y": 0,
          "width": 6,
          "height": 34
        },
        {
          "x": 10,
          "y": 4,
          "width": 7,
          "height": 14
        }
      ]
    },
    "gapCoefficient": 0.6,
    "size": 1,
    "dimensions": {
      "WIDTH": 600,
      "HEIGHT": 150
    },
    "remove": false,
    "xPos": 56,
    "yPos": 105,
    "width": 17,
    "collisionBoxes": [{
        "x": 0,
        "y": 7,
        "width": 5,
        "height": 27
      },
      {
        "x": 4,
        "y": 0,
        "width": 6,
        "height": 34
      },
      {
        "x": 10,
        "y": 4,
        "width": 7,
        "height": 14
      }
    ],
    "gap": 195,
    "speedOffset": 0,
    "currentFrame": 0,
    "timer": 0,
    "followingObstacleCreated": true
  },
  "BigCactus": {
    "canvasCtx": {},
    "spritePos": {
      "x": 332,
      "y": 2
    },
    "typeConfig": {
      "type": "CACTUS_LARGE",
      "width": 25,
      "height": 50,
      "yPos": 90,
      "multipleSpeed": 7,
      "minGap": 120,
      "minSpeed": 0,
      "collisionBoxes": [{
          "x": 0,
          "y": 12,
          "width": 7,
          "height": 38
        },
        {
          "x": 8,
          "y": 0,
          "width": 7,
          "height": 49
        },
        {
          "x": 13,
          "y": 10,
          "width": 10,
          "height": 38
        }
      ]
    },
    "gapCoefficient": 0.6,
    "size": 1,
    "dimensions": {
      "WIDTH": 600,
      "HEIGHT": 150
    },
    "remove": false,
    "xPos": 297,
    "yPos": 90,
    "width": 25,
    "collisionBoxes": [{
        "x": 0,
        "y": 12,
        "width": 7,
        "height": 38
      },
      {
        "x": 8,
        "y": 0,
        "width": 7,
        "height": 49
      },
      {
        "x": 13,
        "y": 10,
        "width": 10,
        "height": 38
      }
    ],
    "gap": 247,
    "speedOffset": 0,
    "currentFrame": 0,
    "timer": 0,
    "followingObstacleCreated": true
  },
  "Double_big_cactus": {
    "canvasCtx": {},
    "spritePos": {
      "x": 332,
      "y": 2
    },
    "typeConfig": {
      "type": "CACTUS_LARGE",
      "width": 25,
      "height": 50,
      "yPos": 90,
      "multipleSpeed": 7,
      "minGap": 120,
      "minSpeed": 0,
      "collisionBoxes": [{
          "x": 0,
          "y": 12,
          "width": 7,
          "height": 38
        },
        {
          "x": 8,
          "y": 0,
          "width": 7,
          "height": 49
        },
        {
          "x": 13,
          "y": 10,
          "width": 10,
          "height": 38
        }
      ]
    },
    "gapCoefficient": 0.6,
    "size": 2,
    "dimensions": {
      "WIDTH": 600,
      "HEIGHT": 150
    },
    "remove": false,
    "xPos": 58,
    "yPos": 90,
    "width": 50,
    "collisionBoxes": [{
        "x": 0,
        "y": 12,
        "width": 7,
        "height": 38
      },
      {
        "x": 8,
        "y": 0,
        "width": 33,
        "height": 49
      },
      {
        "x": 40,
        "y": 10,
        "width": 10,
        "height": 38
      }
    ],
    "gap": 686,
    "speedOffset": 0,
    "currentFrame": 0,
    "timer": 0
  },
  "double_small_cactus": {
    "canvasCtx": {},
    "spritePos": {
      "x": 228,
      "y": 2
    },
    "typeConfig": {
      "type": "CACTUS_SMALL",
      "width": 17,
      "height": 35,
      "yPos": 105,
      "multipleSpeed": 4,
      "minGap": 120,
      "minSpeed": 0,
      "collisionBoxes": [{
          "x": 0,
          "y": 7,
          "width": 5,
          "height": 27
        },
        {
          "x": 4,
          "y": 0,
          "width": 6,
          "height": 34
        },
        {
          "x": 10,
          "y": 4,
          "width": 7,
          "height": 14
        }
      ]
    },
    "gapCoefficient": 0.6,
    "size": 2,
    "dimensions": {
      "WIDTH": 600,
      "HEIGHT": 150
    },
    "remove": false,
    "xPos": 56,
    "yPos": 105,
    "width": 34,
    "collisionBoxes": [{
        "x": 0,
        "y": 7,
        "width": 5,
        "height": 27
      },
      {
        "x": 4,
        "y": 0,
        "width": 22,
        "height": 34
      },
      {
        "x": 27,
        "y": 4,
        "width": 7,
        "height": 14
      }
    ],
    "gap": 335,
    "speedOffset": 0,
    "currentFrame": 0,
    "timer": 0,
    "followingObstacleCreated": true
  },
  "triple_small_cactus": {
    "canvasCtx": {},
    "spritePos": {
      "x": 228,
      "y": 2
    },
    "typeConfig": {
      "type": "CACTUS_SMALL",
      "width": 17,
      "height": 35,
      "yPos": 105,
      "multipleSpeed": 4,
      "minGap": 120,
      "minSpeed": 0,
      "collisionBoxes": [{
          "x": 0,
          "y": 7,
          "width": 5,
          "height": 27
        },
        {
          "x": 4,
          "y": 0,
          "width": 6,
          "height": 34
        },
        {
          "x": 10,
          "y": 4,
          "width": 7,
          "height": 14
        }
      ]
    },
    "gapCoefficient": 0.6,
    "size": 3,
    "dimensions": {
      "WIDTH": 600,
      "HEIGHT": 150
    },
    "remove": false,
    "xPos": 58,
    "yPos": 105,
    "width": 51,
    "collisionBoxes": [{
        "x": 0,
        "y": 7,
        "width": 5,
        "height": 27
      },
      {
        "x": 4,
        "y": 0,
        "width": 39,
        "height": 34
      },
      {
        "x": 44,
        "y": 4,
        "width": 7,
        "height": 14
      }
    ],
    "gap": 563,
    "speedOffset": 0,
    "currentFrame": 0,
    "timer": 0
  },
  "four_mixed_cactus": {
    "canvasCtx": {},
    "spritePos": {
      "x": 332,
      "y": 2
    },
    "typeConfig": {
      "type": "CACTUS_LARGE",
      "width": 25,
      "height": 50,
      "yPos": 90,
      "multipleSpeed": 7,
      "minGap": 120,
      "minSpeed": 0,
      "collisionBoxes": [{
          "x": 0,
          "y": 12,
          "width": 7,
          "height": 38
        },
        {
          "x": 8,
          "y": 0,
          "width": 7,
          "height": 49
        },
        {
          "x": 13,
          "y": 10,
          "width": 10,
          "height": 38
        }
      ]
    },
    "gapCoefficient": 0.6,
    "size": 3,
    "dimensions": {
      "WIDTH": 600,
      "HEIGHT": 150
    },
    "remove": false,
    "xPos": 59,
    "yPos": 90,
    "width": 75,
    "collisionBoxes": [{
        "x": 0,
        "y": 12,
        "width": 7,
        "height": 38
      },
      {
        "x": 8,
        "y": 0,
        "width": 58,
        "height": 49
      },
      {
        "x": 65,
        "y": 10,
        "width": 10,
        "height": 38
      }
    ],
    "gap": 814,
    "speedOffset": 0,
    "currentFrame": 0,
    "timer": 0
  },
  "High_bird": {
    "canvasCtx": {},
    "spritePos": {
      "x": 134,
      "y": 2
    },
    "typeConfig": {
      "type": "PTERODACTYL",
      "width": 46,
      "height": 40,
      "yPos": [
        100,
        75,
        50
      ],
      "yPosMobile": [
        100,
        50
      ],
      "multipleSpeed": 999,
      "minSpeed": 8.5,
      "minGap": 150,
      "collisionBoxes": [{
          "x": 15,
          "y": 15,
          "width": 16,
          "height": 5
        },
        {
          "x": 18,
          "y": 21,
          "width": 24,
          "height": 6
        },
        {
          "x": 2,
          "y": 14,
          "width": 4,
          "height": 3
        },
        {
          "x": 6,
          "y": 10,
          "width": 4,
          "height": 7
        },
        {
          "x": 10,
          "y": 8,
          "width": 6,
          "height": 9
        }
      ],
      "numFrames": 2,
      "frameRate": 166.66666666666666,
      "speedOffset": 0.8
    },
    "gapCoefficient": 0.6,
    "size": 1,
    "dimensions": {
      "WIDTH": 600,
      "HEIGHT": 150
    },
    "remove": false,
    "xPos": 41,
    "yPos": 50,
    "width": 46,
    "collisionBoxes": [{
        "x": 15,
        "y": 15,
        "width": 16,
        "height": 5
      },
      {
        "x": 18,
        "y": 21,
        "width": 24,
        "height": 6
      },
      {
        "x": 2,
        "y": 14,
        "width": 4,
        "height": 3
      },
      {
        "x": 6,
        "y": 10,
        "width": 4,
        "height": 7
      },
      {
        "x": 10,
        "y": 8,
        "width": 6,
        "height": 9
      }
    ],
    "gap": 530,
    "speedOffset": -0.8,
    "currentFrame": 1,
    "timer": 132.93500000005588
  },
  "middle_bird": {
    "canvasCtx": {},
    "spritePos": {
      "x": 134,
      "y": 2
    },
    "typeConfig": {
      "type": "PTERODACTYL",
      "width": 46,
      "height": 40,
      "yPos": [
        100,
        75,
        50
      ],
      "yPosMobile": [
        100,
        50
      ],
      "multipleSpeed": 999,
      "minSpeed": 8.5,
      "minGap": 150,
      "collisionBoxes": [{
          "x": 15,
          "y": 15,
          "width": 16,
          "height": 5
        },
        {
          "x": 18,
          "y": 21,
          "width": 24,
          "height": 6
        },
        {
          "x": 2,
          "y": 14,
          "width": 4,
          "height": 3
        },
        {
          "x": 6,
          "y": 10,
          "width": 4,
          "height": 7
        },
        {
          "x": 10,
          "y": 8,
          "width": 6,
          "height": 9
        }
      ],
      "numFrames": 2,
      "frameRate": 166.66666666666666,
      "speedOffset": 0.8
    },
    "gapCoefficient": 0.6,
    "size": 1,
    "dimensions": {
      "WIDTH": 600,
      "HEIGHT": 150
    },
    "remove": false,
    "xPos": 45,
    "yPos": 75,
    "width": 46,
    "collisionBoxes": [{
        "x": 15,
        "y": 15,
        "width": 16,
        "height": 5
      },
      {
        "x": 18,
        "y": 21,
        "width": 24,
        "height": 6
      },
      {
        "x": 2,
        "y": 14,
        "width": 4,
        "height": 3
      },
      {
        "x": 6,
        "y": 10,
        "width": 4,
        "height": 7
      },
      {
        "x": 10,
        "y": 8,
        "width": 6,
        "height": 9
      }
    ],
    "gap": 565,
    "speedOffset": 0.8,
    "currentFrame": 0,
    "timer": 65.91499999992084
  },
  "low_bird": {
    "canvasCtx": {},
    "spritePos": {
      "x": 134,
      "y": 2
    },
    "typeConfig": {
      "type": "PTERODACTYL",
      "width": 46,
      "height": 40,
      "yPos": [
        100,
        75,
        50
      ],
      "yPosMobile": [
        100,
        50
      ],
      "multipleSpeed": 999,
      "minSpeed": 8.5,
      "minGap": 150,
      "collisionBoxes": [{
          "x": 15,
          "y": 15,
          "width": 16,
          "height": 5
        },
        {
          "x": 18,
          "y": 21,
          "width": 24,
          "height": 6
        },
        {
          "x": 2,
          "y": 14,
          "width": 4,
          "height": 3
        },
        {
          "x": 6,
          "y": 10,
          "width": 4,
          "height": 7
        },
        {
          "x": 10,
          "y": 8,
          "width": 6,
          "height": 9
        }
      ],
      "numFrames": 2,
      "frameRate": 166.66666666666666,
      "speedOffset": 0.8
    },
    "gapCoefficient": 0.6,
    "size": 1,
    "dimensions": {
      "WIDTH": 600,
      "HEIGHT": 150
    },
    "remove": false,
    "xPos": 190,
    "yPos": 100,
    "width": 46,
    "collisionBoxes": [{
        "x": 15,
        "y": 15,
        "width": 16,
        "height": 5
      },
      {
        "x": 18,
        "y": 21,
        "width": 24,
        "height": 6
      },
      {
        "x": 2,
        "y": 14,
        "width": 4,
        "height": 3
      },
      {
        "x": 6,
        "y": 10,
        "width": 4,
        "height": 7
      },
      {
        "x": 10,
        "y": 8,
        "width": 6,
        "height": 9
      }
    ],
    "gap": 616,
    "speedOffset": 0.8,
    "currentFrame": 0,
    "timer": 116.34500000020489
  }
}